{
    "cinnamon-version": [
        "2.0",
        "2.1",
        "2.2",
        "2.4",
        "2.6",
        "2.8",
        "3.0",
        "3.2",
        "3.4",
        "3.8",
        "4.0"
    ],
    "uuid": "DesktopCube@yare",
    "name": "Desktop Cube",
    "description": "Compiz Cube-like animation for workspace switching",
    "url": "http://cinnamon-spices.linuxmint.com/",
    "last-edited": 1550276083
}