<?xml version="1.0" standalone="no"?>

<svg viewBox="0 0 3840 2160" style="background-color:transparent" version="1.1" xmlns="http://www.w3.org/2000/svg" xmlns:xlink="http://www.w3.org/1999/xlink" xml:space="preserve" x="0px" y="0px" width="100%" height="100%">
	<g id="Layer%201">
		<rect x="0" y="0" width="3840" height="2160" fill="#333333"/>
	</g>
</svg>